module cop

go 1.22.0

toolchain go1.22.2

require (
	github.com/gorilla/mux v1.8.1
	github.com/justinas/alice v1.2.0
	github.com/prometheus/client_golang v1.19.1
	github.com/rs/zerolog v1.33.0
	github.com/traefik/paerser v0.2.0
)

require (
	github.com/BurntSushi/toml v1.2.1 // indirect
	github.com/beorn7/perks v1.0.1 // indirect
	github.com/cespare/xxhash/v2 v2.2.0 // indirect
	github.com/kr/text v0.2.0 // indirect
	github.com/mattn/go-colorable v0.1.13 // indirect
	github.com/mattn/go-isatty v0.0.19 // indirect
	github.com/prometheus/client_model v0.5.0 // indirect
	github.com/prometheus/common v0.48.0 // indirect
	github.com/prometheus/procfs v0.12.0 // indirect
	github.com/rs/xid v1.5.0 // indirect
	golang.org/x/sys v0.17.0 // indirect
	google.golang.org/protobuf v1.33.0 // indirect
	gopkg.in/yaml.v3 v3.0.1 // indirect
)
